@startuml US004_SD_REF


participant ": SnsUserArrivalController" as SNSU_CTRL
participant ": Company" as CPN
participant "SnsuStore: SnsUserStore" as SNSU_STORE
participant "SnsUser: SnsUser" as SNSU
participant "SchStore: ScheduleStore" as S_STORE


activate SNSU_CTRL
SNSU_CTRL -> CPN :SnsuStore = getSnsUserStore()
activate CPN
deactivate CPN
SNSU_CTRL -> SNSU_STORE : U = getUserBySNSUserNumber(SnsUserNumber)
activate SNSU_STORE
deactivate SNSU_STORE
SNSU_CTRL -> CPN :ScheduleStore = getSchStore()
activate CPN
deactivate CPN
SNSU_CTRL -> S_STORE :S = getVaccineScheduleByid(U)
activate S_STORE
deactivate S_STORE

@enduml