<?xml version="1.0" encoding="UTF-8" standalone="no"?><svg xmlns="http://www.w3.org/2000/svg" xmlns:xlink="http://www.w3.org/1999/xlink" contentScriptType="application/ecmascript" contentStyleType="text/css" height="324px" preserveAspectRatio="none" style="width:1052px;height:324px;background:#FFFFFF;" version="1.1" viewBox="0 0 1052 324" width="1052px" zoomAndPan="magnify"><defs><filter height="300%" id="f1wbumb1mczzru" width="300%" x="-1" y="-1"><feGaussianBlur result="blurOut" stdDeviation="2.0"/><feColorMatrix in="blurOut" result="blurOut2" type="matrix" values="0 0 0 0 0 0 0 0 0 0 0 0 0 0 0 0 0 0 .4 0"/><feOffset dx="4.0" dy="4.0" in="blurOut2" result="blurOut3"/><feBlend in="SourceGraphic" in2="blurOut3" mode="normal"/></filter></defs><g><!--MD5=[02e4b9b7573f1156f41e60aa5b4e25a4]
class Company--><rect codeLine="4" fill="#FEFECE" filter="url(#f1wbumb1mczzru)" height="75.6719" id="Company" style="stroke:#A80036;stroke-width:1.5;" width="168" x="7" y="97"/><ellipse cx="60.25" cy="113" fill="#ADD1B2" rx="11" ry="11" style="stroke:#A80036;stroke-width:1.0;"/><path d="M62.25,109.5 Q62.4531,109 62.6875,108.75 Q62.9219,108.5 63.1875,108.5 Q63.6563,108.5 63.9531,108.7813 Q64.25,109.0625 64.25,109.7188 L64.25,111.2813 Q64.25,111.9375 63.9688,112.2188 Q63.6875,112.5 63.25,112.5 Q62.8594,112.5 62.6094,112.3281 Q62.3594,112.1563 62.25,111.7031 Q62.2031,111.3906 62.0313,111.2188 Q61.7188,110.8906 61.1563,110.7031 Q60.5938,110.5 60.0313,110.5 Q59.3281,110.5 58.7344,110.7813 Q58.1563,111.0625 57.7031,111.6875 Q57.25,112.3125 57.25,113.1719 L57.25,114.0938 Q57.25,115.125 58.0938,115.8125 Q58.9375,116.5 60.4375,116.5 Q61.3281,116.5 61.9531,116.2969 Q62.3125,116.1875 62.7188,115.8281 Q62.9844,115.625 63.125,115.5625 Q63.2656,115.5 63.4375,115.5 Q63.7656,115.5 64,115.7656 Q64.25,116.0156 64.25,116.375 Q64.25,116.7188 63.9063,117.125 Q63.4063,117.7188 62.6094,118.0469 Q61.5625,118.5 60.2813,118.5 Q58.7813,118.5 57.5781,117.9063 Q56.6094,117.4375 55.9219,116.4219 Q55.25,115.4063 55.25,114.2031 L55.25,113.1094 Q55.25,111.8594 55.8438,110.7656 Q56.4531,109.6719 57.5,109.0938 Q58.5625,108.5 59.75,108.5 Q60.4688,108.5 61.0938,108.75 Q61.7188,109 62.25,109.5 Z " fill="#000000"/><text fill="#000000" font-family="sans-serif" font-size="12" lengthAdjust="spacing" textLength="53" x="80.75" y="117.9102">Company</text><line style="stroke:#A80036;stroke-width:1.5;" x1="8" x2="174" y1="129" y2="129"/><text fill="#000000" font-family="sans-serif" font-size="11" lengthAdjust="spacing" textLength="59" x="13" y="144.4189">-designation</text><line style="stroke:#A80036;stroke-width:1.5;" x1="8" x2="174" y1="150.8359" y2="150.8359"/><text fill="#000000" font-family="sans-serif" font-size="11" lengthAdjust="spacing" textLength="156" x="13" y="166.2549">+scheduleVaccineRecordTask()</text><!--MD5=[8f6c3cd5d410d4d55ab6f2ab9ef6548c]
class VaccineRecordTask--><rect codeLine="9" fill="#FEFECE" filter="url(#f1wbumb1mczzru)" height="75.6719" id="VaccineRecordTask" style="stroke:#A80036;stroke-width:1.5;" width="142" x="309" y="97"/><ellipse cx="324" cy="113" fill="#ADD1B2" rx="11" ry="11" style="stroke:#A80036;stroke-width:1.0;"/><path d="M326,109.5 Q326.2031,109 326.4375,108.75 Q326.6719,108.5 326.9375,108.5 Q327.4063,108.5 327.7031,108.7813 Q328,109.0625 328,109.7188 L328,111.2813 Q328,111.9375 327.7188,112.2188 Q327.4375,112.5 327,112.5 Q326.6094,112.5 326.3594,112.3281 Q326.1094,112.1563 326,111.7031 Q325.9531,111.3906 325.7813,111.2188 Q325.4688,110.8906 324.9063,110.7031 Q324.3438,110.5 323.7813,110.5 Q323.0781,110.5 322.4844,110.7813 Q321.9063,111.0625 321.4531,111.6875 Q321,112.3125 321,113.1719 L321,114.0938 Q321,115.125 321.8438,115.8125 Q322.6875,116.5 324.1875,116.5 Q325.0781,116.5 325.7031,116.2969 Q326.0625,116.1875 326.4688,115.8281 Q326.7344,115.625 326.875,115.5625 Q327.0156,115.5 327.1875,115.5 Q327.5156,115.5 327.75,115.7656 Q328,116.0156 328,116.375 Q328,116.7188 327.6563,117.125 Q327.1563,117.7188 326.3594,118.0469 Q325.3125,118.5 324.0313,118.5 Q322.5313,118.5 321.3281,117.9063 Q320.3594,117.4375 319.6719,116.4219 Q319,115.4063 319,114.2031 L319,113.1094 Q319,111.8594 319.5938,110.7656 Q320.2031,109.6719 321.25,109.0938 Q322.3125,108.5 323.5,108.5 Q324.2188,108.5 324.8438,108.75 Q325.4688,109 326,109.5 Z " fill="#000000"/><text fill="#000000" font-family="sans-serif" font-size="12" lengthAdjust="spacing" textLength="110" x="338" y="117.9102">VaccineRecordTask</text><line style="stroke:#A80036;stroke-width:1.5;" x1="310" x2="450" y1="129" y2="129"/><line style="stroke:#A80036;stroke-width:1.5;" x1="310" x2="450" y1="137" y2="137"/><text fill="#000000" font-family="sans-serif" font-size="11" lengthAdjust="spacing" textLength="30" x="315" y="152.4189">+run()</text><text fill="#000000" font-family="sans-serif" font-size="11" lengthAdjust="spacing" textLength="78" x="315" y="166.2549">+saveRun(data)</text><!--MD5=[b526aaf6828ae195cadd63a927f10f88]
class VaccinationCenterReport--><rect codeLine="14" fill="#FEFECE" filter="url(#f1wbumb1mczzru)" height="61.8359" id="VaccinationCenterReport" style="stroke:#A80036;stroke-width:1.5;" width="182" x="617" y="7"/><ellipse cx="637.85" cy="23" fill="#ADD1B2" rx="11" ry="11" style="stroke:#A80036;stroke-width:1.0;"/><path d="M639.85,19.5 Q640.0531,19 640.2875,18.75 Q640.5219,18.5 640.7875,18.5 Q641.2563,18.5 641.5531,18.7813 Q641.85,19.0625 641.85,19.7188 L641.85,21.2813 Q641.85,21.9375 641.5688,22.2188 Q641.2875,22.5 640.85,22.5 Q640.4594,22.5 640.2094,22.3281 Q639.9594,22.1563 639.85,21.7031 Q639.8031,21.3906 639.6313,21.2188 Q639.3188,20.8906 638.7563,20.7031 Q638.1938,20.5 637.6313,20.5 Q636.9281,20.5 636.3344,20.7813 Q635.7563,21.0625 635.3031,21.6875 Q634.85,22.3125 634.85,23.1719 L634.85,24.0938 Q634.85,25.125 635.6938,25.8125 Q636.5375,26.5 638.0375,26.5 Q638.9281,26.5 639.5531,26.2969 Q639.9125,26.1875 640.3188,25.8281 Q640.5844,25.625 640.725,25.5625 Q640.8656,25.5 641.0375,25.5 Q641.3656,25.5 641.6,25.7656 Q641.85,26.0156 641.85,26.375 Q641.85,26.7188 641.5063,27.125 Q641.0063,27.7188 640.2094,28.0469 Q639.1625,28.5 637.8813,28.5 Q636.3813,28.5 635.1781,27.9063 Q634.2094,27.4375 633.5219,26.4219 Q632.85,25.4063 632.85,24.2031 L632.85,23.1094 Q632.85,21.8594 633.4438,20.7656 Q634.0531,19.6719 635.1,19.0938 Q636.1625,18.5 637.35,18.5 Q638.0688,18.5 638.6938,18.75 Q639.3188,19 639.85,19.5 Z " fill="#000000"/><text fill="#000000" font-family="sans-serif" font-size="12" lengthAdjust="spacing" textLength="137" x="653.15" y="27.9102">VaccinationCenterReport</text><line style="stroke:#A80036;stroke-width:1.5;" x1="618" x2="798" y1="39" y2="39"/><line style="stroke:#A80036;stroke-width:1.5;" x1="618" x2="798" y1="47" y2="47"/><text fill="#000000" font-family="sans-serif" font-size="11" lengthAdjust="spacing" textLength="170" x="623" y="62.4189">+generate(vaccinationCenterStore)</text><!--MD5=[1b844c90688aafb95cd8c95626c3b83a]
class Timer--><rect codeLine="18" fill="#FEFECE" filter="url(#f1wbumb1mczzru)" height="61.8359" id="Timer" style="stroke:#A80036;stroke-width:1.5;" width="208" x="604" y="104"/><ellipse cx="687.75" cy="120" fill="#A9DCDF" rx="11" ry="11" style="stroke:#A80036;stroke-width:1.0;"/><path d="M689.5,121.5 L686.2031,121.5 L685.7656,122.5 L685.7656,122.5 L686.2344,122.5 L686.75,123.125 L686.75,123.5 L686.75,123.875 L686.2344,124.5 L685.7656,124.5 L683.875,124.5 L683.2656,124.5 L682.75,123.875 L682.75,123.5 L682.75,123.125 L683.2656,122.5 L683.875,122.5 L686.1875,116.5 L685.3125,116.5 L684.2656,116.5 L683.75,115.875 L683.75,115.5 L683.75,115.125 L684.2656,114.5 L685.3125,114.5 L688.9844,114.5 L691.6719,122.5 L692.2344,122.5 L692.2344,122.5 L692.75,123.125 L692.75,123.5 L692.75,123.875 L692.2344,124.5 L691.6719,124.5 L689.7813,124.5 L689.2656,124.5 L688.75,123.875 L688.75,123.5 L688.75,123.125 L689.2656,122.5 L689.7813,122.5 L689.7813,122.5 L689.5,121.5 Z M688.9531,119.5 L687.75,115.9219 L686.7188,119.5 L688.9531,119.5 Z " fill="#000000"/><text fill="#000000" font-family="sans-serif" font-size="12" font-style="italic" lengthAdjust="spacing" textLength="32" x="708.25" y="124.9102">Timer</text><line style="stroke:#A80036;stroke-width:1.5;" x1="605" x2="811" y1="136" y2="136"/><line style="stroke:#A80036;stroke-width:1.5;" x1="605" x2="811" y1="144" y2="144"/><text fill="#000000" font-family="sans-serif" font-size="11" lengthAdjust="spacing" textLength="196" x="610" y="159.4189">+scheduleAtFixedRate(task, date, delay)</text><!--MD5=[8f188b89eff49accb0f38c057b38a9f2]
class ExternalModule--><rect codeLine="22" fill="#FEFECE" filter="url(#f1wbumb1mczzru)" height="61.8359" id="ExternalModule" style="stroke:#A80036;stroke-width:1.5;" width="117" x="649.5" y="201"/><ellipse cx="664.5" cy="217" fill="#B4A7E5" rx="11" ry="11" style="stroke:#A80036;stroke-width:1.0;"/><path d="M665.5,214 L665.5,220 L667.5,220 L667.9844,220 L668.5,220.625 L668.5,221 L668.5,221.375 L667.9844,222 L667.5,222 L661.5,222 L661.0156,222 L660.5,221.375 L660.5,221 L660.5,220.625 L661.0156,220 L661.5,220 L663.5,220 L663.5,214 L661.5,214 L661.0156,214 L660.5,213.375 L660.5,213 L660.5,212.625 L661.0156,212 L661.5,212 L667.5,212 L667.9844,212 L668.5,212.625 L668.5,213 L668.5,213.375 L667.9844,214 L667.5,214 L665.5,214 Z " fill="#000000"/><text fill="#000000" font-family="sans-serif" font-size="12" font-style="italic" lengthAdjust="spacing" textLength="85" x="678.5" y="221.9102">ExternalModule</text><line style="stroke:#A80036;stroke-width:1.5;" x1="650.5" x2="765.5" y1="233" y2="233"/><line style="stroke:#A80036;stroke-width:1.5;" x1="650.5" x2="765.5" y1="241" y2="241"/><text fill="#000000" font-family="sans-serif" font-size="11" lengthAdjust="spacing" textLength="88" x="655.5" y="256.4189">+writeToFile(path)</text><!--MD5=[0f11f0f60ee567100a99d4d7b98e8e2f]
class ExternalModuleAdapter1--><rect codeLine="26" fill="#FEFECE" filter="url(#f1wbumb1mczzru)" height="61.8359" id="ExternalModuleAdapter1" style="stroke:#A80036;stroke-width:1.5;" width="165" x="873" y="152"/><ellipse cx="888" cy="168" fill="#ADD1B2" rx="11" ry="11" style="stroke:#A80036;stroke-width:1.0;"/><path d="M890,164.5 Q890.2031,164 890.4375,163.75 Q890.6719,163.5 890.9375,163.5 Q891.4063,163.5 891.7031,163.7813 Q892,164.0625 892,164.7188 L892,166.2813 Q892,166.9375 891.7188,167.2188 Q891.4375,167.5 891,167.5 Q890.6094,167.5 890.3594,167.3281 Q890.1094,167.1563 890,166.7031 Q889.9531,166.3906 889.7813,166.2188 Q889.4688,165.8906 888.9063,165.7031 Q888.3438,165.5 887.7813,165.5 Q887.0781,165.5 886.4844,165.7813 Q885.9063,166.0625 885.4531,166.6875 Q885,167.3125 885,168.1719 L885,169.0938 Q885,170.125 885.8438,170.8125 Q886.6875,171.5 888.1875,171.5 Q889.0781,171.5 889.7031,171.2969 Q890.0625,171.1875 890.4688,170.8281 Q890.7344,170.625 890.875,170.5625 Q891.0156,170.5 891.1875,170.5 Q891.5156,170.5 891.75,170.7656 Q892,171.0156 892,171.375 Q892,171.7188 891.6563,172.125 Q891.1563,172.7188 890.3594,173.0469 Q889.3125,173.5 888.0313,173.5 Q886.5313,173.5 885.3281,172.9063 Q884.3594,172.4375 883.6719,171.4219 Q883,170.4063 883,169.2031 L883,168.1094 Q883,166.8594 883.5938,165.7656 Q884.2031,164.6719 885.25,164.0938 Q886.3125,163.5 887.5,163.5 Q888.2188,163.5 888.8438,163.75 Q889.4688,164 890,164.5 Z " fill="#000000"/><text fill="#000000" font-family="sans-serif" font-size="12" lengthAdjust="spacing" textLength="133" x="902" y="172.9102">ExternalModuleAdapter1</text><line style="stroke:#A80036;stroke-width:1.5;" x1="874" x2="1037" y1="184" y2="184"/><line style="stroke:#A80036;stroke-width:1.5;" x1="874" x2="1037" y1="192" y2="192"/><text fill="#000000" font-family="sans-serif" font-size="11" lengthAdjust="spacing" textLength="88" x="879" y="207.4189">+writeToFile(path)</text><!--MD5=[2191233c03d1d98f88ead7aa4dd76da0]
class ExternalModuleAdapter2--><rect codeLine="31" fill="#FEFECE" filter="url(#f1wbumb1mczzru)" height="61.8359" id="ExternalModuleAdapter2" style="stroke:#A80036;stroke-width:1.5;" width="165" x="873" y="249"/><ellipse cx="888" cy="265" fill="#ADD1B2" rx="11" ry="11" style="stroke:#A80036;stroke-width:1.0;"/><path d="M890,261.5 Q890.2031,261 890.4375,260.75 Q890.6719,260.5 890.9375,260.5 Q891.4063,260.5 891.7031,260.7813 Q892,261.0625 892,261.7188 L892,263.2813 Q892,263.9375 891.7188,264.2188 Q891.4375,264.5 891,264.5 Q890.6094,264.5 890.3594,264.3281 Q890.1094,264.1563 890,263.7031 Q889.9531,263.3906 889.7813,263.2188 Q889.4688,262.8906 888.9063,262.7031 Q888.3438,262.5 887.7813,262.5 Q887.0781,262.5 886.4844,262.7813 Q885.9063,263.0625 885.4531,263.6875 Q885,264.3125 885,265.1719 L885,266.0938 Q885,267.125 885.8438,267.8125 Q886.6875,268.5 888.1875,268.5 Q889.0781,268.5 889.7031,268.2969 Q890.0625,268.1875 890.4688,267.8281 Q890.7344,267.625 890.875,267.5625 Q891.0156,267.5 891.1875,267.5 Q891.5156,267.5 891.75,267.7656 Q892,268.0156 892,268.375 Q892,268.7188 891.6563,269.125 Q891.1563,269.7188 890.3594,270.0469 Q889.3125,270.5 888.0313,270.5 Q886.5313,270.5 885.3281,269.9063 Q884.3594,269.4375 883.6719,268.4219 Q883,267.4063 883,266.2031 L883,265.1094 Q883,263.8594 883.5938,262.7656 Q884.2031,261.6719 885.25,261.0938 Q886.3125,260.5 887.5,260.5 Q888.2188,260.5 888.8438,260.75 Q889.4688,261 890,261.5 Z " fill="#000000"/><text fill="#000000" font-family="sans-serif" font-size="12" lengthAdjust="spacing" textLength="133" x="902" y="269.9102">ExternalModuleAdapter2</text><line style="stroke:#A80036;stroke-width:1.5;" x1="874" x2="1037" y1="281" y2="281"/><line style="stroke:#A80036;stroke-width:1.5;" x1="874" x2="1037" y1="289" y2="289"/><text fill="#000000" font-family="sans-serif" font-size="11" lengthAdjust="spacing" textLength="88" x="879" y="304.4189">+writeToFile(path)</text><!--MD5=[2476928b5f52e68e9bc19583545429a6]
link Company to VaccineRecordTask--><path codeLine="35" d="M175.01,135 C217.39,135 268.39,135 308.79,135 " fill="none" id="Company-VaccineRecordTask" style="stroke:#A80036;stroke-width:1.0;"/><polygon fill="#000000" points="215,126.1758,205.9549,123.2369,205.9549,129.1147,215,126.1758" style="stroke:#000000;stroke-width:1.0;"/><text fill="#000000" font-family="sans-serif" font-size="13" lengthAdjust="spacing" textLength="59" x="219" y="131.4951">schedules</text><text fill="#000000" font-family="sans-serif" font-size="13" lengthAdjust="spacing" textLength="7" x="183.0773" y="149.2639">1</text><text fill="#000000" font-family="sans-serif" font-size="13" lengthAdjust="spacing" textLength="7" x="294.0855" y="149.3552">1</text><!--MD5=[023cd2b3b2d7fe0d24fa13bccce2b33c]
link VaccineRecordTask to Timer--><path codeLine="37" d="M451.34,135 C495.88,135 554.26,135 603.98,135 " fill="none" id="VaccineRecordTask-Timer" style="stroke:#A80036;stroke-width:1.0;"/><polygon fill="#000000" points="491,126.1758,481.9549,123.2369,481.9549,129.1147,491,126.1758" style="stroke:#000000;stroke-width:1.0;"/><text fill="#000000" font-family="sans-serif" font-size="13" lengthAdjust="spacing" textLength="78" x="495" y="131.4951">makes use of</text><text fill="#000000" font-family="sans-serif" font-size="13" lengthAdjust="spacing" textLength="7" x="459.0579" y="149.3552">1</text><text fill="#000000" font-family="sans-serif" font-size="13" lengthAdjust="spacing" textLength="7" x="589.084" y="149.1016">1</text><!--MD5=[b4cd9041e865f6372f11a885a7e11abe]
link VaccineRecordTask to VaccinationCenterReport--><path codeLine="38" d="M451.34,114.07 C499.81,99.65 564.67,80.35 616.93,64.8 " fill="none" id="VaccineRecordTask-VaccinationCenterReport" style="stroke:#A80036;stroke-width:1.0;"/><polygon fill="#000000" points="508.2924,67.7499,498.7848,67.5125,500.461,73.1463,508.2924,67.7499" style="stroke:#000000;stroke-width:1.0;"/><text fill="#000000" font-family="sans-serif" font-size="13" lengthAdjust="spacing" textLength="43" x="512.5" y="74.4951">creates</text><text fill="#000000" font-family="sans-serif" font-size="13" lengthAdjust="spacing" textLength="7" x="459.0579" y="126.2668">1</text><text fill="#000000" font-family="sans-serif" font-size="13" lengthAdjust="spacing" textLength="7" x="602.0984" y="81.1983">1</text><!--MD5=[584e10fe0aa315f4f7811a3374828fef]
link VaccineRecordTask to ExternalModule--><path codeLine="40" d="M451.34,155.93 C510.48,173.53 594.01,198.38 649.29,214.83 " fill="none" id="VaccineRecordTask-ExternalModule" style="stroke:#A80036;stroke-width:1.0;"/><polygon fill="#000000" points="490.7924,159.6017,482.9611,154.2053,481.2847,159.839,490.7924,159.6017" style="stroke:#000000;stroke-width:1.0;"/><text fill="#000000" font-family="sans-serif" font-size="13" lengthAdjust="spacing" textLength="78" x="495" y="163.4951">makes use of</text><text fill="#000000" font-family="sans-serif" font-size="13" lengthAdjust="spacing" textLength="7" x="459.0579" y="172.4436">1</text><text fill="#000000" font-family="sans-serif" font-size="13" lengthAdjust="spacing" textLength="7" x="634.3193" y="227.1832">1</text><!--MD5=[c2c2ccc97fe06aa0672aa10f0c0d0d1b]
reverse link ExternalModule to ExternalModuleAdapter1--><path codeLine="42" d="M771.81,219.46 C802.49,213.34 839.79,205.89 872.67,199.33 " fill="none" id="ExternalModule-backto-ExternalModuleAdapter1" style="stroke:#A80036;stroke-width:1.0;stroke-dasharray:7.0,7.0;"/><polygon fill="#A80036" points="766.56,220.51,776.166,222.6834,771.4645,219.5377,774.6103,214.8362,766.56,220.51" style="stroke:#A80036;stroke-width:1.0;"/><!--MD5=[e762491942221b7e6cccce8a5f133053]
reverse link ExternalModule to ExternalModuleAdapter2--><path codeLine="43" d="M771.81,244.28 C802.49,250.28 839.79,257.57 872.67,264 " fill="none" id="ExternalModule-backto-ExternalModuleAdapter2" style="stroke:#A80036;stroke-width:1.0;stroke-dasharray:7.0,7.0;"/><polygon fill="#A80036" points="766.56,243.25,774.6262,248.9012,771.4673,244.2086,776.1599,241.0496,766.56,243.25" style="stroke:#A80036;stroke-width:1.0;"/><!--MD5=[5f2063d407bbef41658034d948c40efb]
@startuml
skinparam classAttributeIconSize 0
left to right direction

class Company{
    -designation
    +scheduleVaccineRecordTask()
}

class VaccineRecordTask{
    +run()
    +saveRun(data)
}

class VaccinationCenterReport{
    +generate(vaccinationCenterStore)
}

abstract class Timer{
    +scheduleAtFixedRate(task, date, delay)
}

interface ExternalModule{
    +writeToFile(path)
}

class ExternalModuleAdapter1{
  +writeToFile(path)
}


class ExternalModuleAdapter2{
   +writeToFile(path)
}

Company "1" - - "1" VaccineRecordTask : schedules >

VaccineRecordTask "1" - - "1" Timer : makes use of >
VaccineRecordTask "1" - - "1" VaccinationCenterReport : creates >

VaccineRecordTask "1" - - "1" ExternalModule : makes use of >

ExternalModule <.. ExternalModuleAdapter1
ExternalModule <.. ExternalModuleAdapter2

@enduml

PlantUML version 1.2022.1(Tue Feb 01 18:19:58 GMT 2022)
(GPL source distribution)
Java Runtime: OpenJDK Runtime Environment
JVM: OpenJDK 64-Bit Server VM
Default Encoding: Cp1252
Language: pt
Country: PT
--></g></svg>