@startuml
hide methods
skinparam classAttributeIconSize 0

class Company {
 -designation
}

class VaccinationCenter {
 -name
 -address
 -emailAddress
 -faxNumber
 -websiteAddress
 -openingHours
 -slotDuration
 -vaccinesPerSlot
}

Company "1" -- "*" VaccinationCenter : manages >

@enduml