<?xml version="1.0" encoding="UTF-8" standalone="no"?><svg xmlns="http://www.w3.org/2000/svg" xmlns:xlink="http://www.w3.org/1999/xlink" contentScriptType="application/ecmascript" contentStyleType="text/css" height="785px" preserveAspectRatio="none" style="width:2033px;height:785px;background:#FFFFFF;" version="1.1" viewBox="0 0 2033 785" width="2033px" zoomAndPan="magnify"><defs><filter height="300%" id="fjiyq44w9fip5" width="300%" x="-1" y="-1"><feGaussianBlur result="blurOut" stdDeviation="2.0"/><feColorMatrix in="blurOut" result="blurOut2" type="matrix" values="0 0 0 0 0 0 0 0 0 0 0 0 0 0 0 0 0 0 .4 0"/><feOffset dx="4.0" dy="4.0" in="blurOut2" result="blurOut3"/><feBlend in="SourceGraphic" in2="blurOut3" mode="normal"/></filter></defs><g><!--MD5=[02e4b9b7573f1156f41e60aa5b4e25a4]
class Company--><rect codeLine="3" fill="#FEFECE" filter="url(#fjiyq44w9fip5)" height="103.3438" id="Company" style="stroke:#A80036;stroke-width:1.5;" width="163" x="7" y="504.5"/><ellipse cx="57.75" cy="520.5" fill="#ADD1B2" rx="11" ry="11" style="stroke:#A80036;stroke-width:1.0;"/><path d="M60.5156,516.375 Q60.6719,516.1563 60.8594,516.0469 Q61.0469,515.9375 61.2656,515.9375 Q61.6406,515.9375 61.875,516.1953 Q62.1094,516.4531 62.1094,517.0625 L62.1094,518.5156 Q62.1094,519.125 61.875,519.3906 Q61.6406,519.6563 61.2656,519.6563 Q60.9219,519.6563 60.7188,519.4531 Q60.5156,519.2656 60.4063,518.75 Q60.3594,518.3906 60.1719,518.2031 Q59.8438,517.8281 59.2344,517.6094 Q58.625,517.3906 58,517.3906 Q57.2344,517.3906 56.6016,517.7188 Q55.9688,518.0469 55.4766,518.7969 Q54.9844,519.5469 54.9844,520.5781 L54.9844,521.6719 Q54.9844,522.9063 55.875,523.7266 Q56.7656,524.5469 58.3594,524.5469 Q59.2969,524.5469 59.9531,524.2969 Q60.3438,524.1406 60.7656,523.7031 Q61.0313,523.4375 61.1797,523.3594 Q61.3281,523.2813 61.5313,523.2813 Q61.8594,523.2813 62.1172,523.5391 Q62.375,523.7969 62.375,524.1406 Q62.375,524.4844 62.0313,524.8906 Q61.5313,525.4688 60.7344,525.7969 Q59.6563,526.25 58.3594,526.25 Q56.8438,526.25 55.6406,525.625 Q54.6563,525.125 53.9688,524.0547 Q53.2813,522.9844 53.2813,521.7031 L53.2813,520.5469 Q53.2813,519.2188 53.8984,518.0703 Q54.5156,516.9219 55.6094,516.3047 Q56.7031,515.6875 57.9375,515.6875 Q58.6719,515.6875 59.3203,515.8516 Q59.9688,516.0156 60.5156,516.375 Z " fill="#000000"/><text fill="#000000" font-family="sans-serif" font-size="12" lengthAdjust="spacing" textLength="53" x="78.25" y="525.4102">Company</text><line style="stroke:#A80036;stroke-width:1.5;" x1="8" x2="169" y1="536.5" y2="536.5"/><rect fill="none" height="6" style="stroke:#C82930;stroke-width:1.0;" width="6" x="15" y="544.5"/><text fill="#000000" font-family="sans-serif" font-size="11" lengthAdjust="spacing" textLength="55" x="27" y="551.9189">designation</text><line style="stroke:#A80036;stroke-width:1.5;" x1="8" x2="169" y1="558.3359" y2="558.3359"/><ellipse cx="18" cy="569.3359" fill="#84BE84" rx="3" ry="3" style="stroke:#038048;stroke-width:1.0;"/><text fill="#000000" font-family="sans-serif" font-size="11" lengthAdjust="spacing" textLength="74" x="27" y="573.7549">getNursetore ()</text><ellipse cx="18" cy="583.1719" fill="#84BE84" rx="3" ry="3" style="stroke:#038048;stroke-width:1.0;"/><text fill="#000000" font-family="sans-serif" font-size="11" lengthAdjust="spacing" textLength="137" x="27" y="587.5908">getVaccineScheduleStore ()</text><ellipse cx="18" cy="597.0078" fill="#84BE84" rx="3" ry="3" style="stroke:#038048;stroke-width:1.0;"/><text fill="#000000" font-family="sans-serif" font-size="11" lengthAdjust="spacing" textLength="98" x="27" y="601.4268">getVaccinesStore ()</text><!--MD5=[409dbf882fb8020b4dc8606abbdcd83e]
class NurseStore--><rect codeLine="10" fill="#FEFECE" filter="url(#fjiyq44w9fip5)" height="61.8359" id="NurseStore" style="stroke:#A80036;stroke-width:1.5;" width="169" x="1017" y="525"/><ellipse cx="1065.75" cy="541" fill="#ADD1B2" rx="11" ry="11" style="stroke:#A80036;stroke-width:1.0;"/><path d="M1068.5156,536.875 Q1068.6719,536.6563 1068.8594,536.5469 Q1069.0469,536.4375 1069.2656,536.4375 Q1069.6406,536.4375 1069.875,536.6953 Q1070.1094,536.9531 1070.1094,537.5625 L1070.1094,539.0156 Q1070.1094,539.625 1069.875,539.8906 Q1069.6406,540.1563 1069.2656,540.1563 Q1068.9219,540.1563 1068.7188,539.9531 Q1068.5156,539.7656 1068.4063,539.25 Q1068.3594,538.8906 1068.1719,538.7031 Q1067.8438,538.3281 1067.2344,538.1094 Q1066.625,537.8906 1066,537.8906 Q1065.2344,537.8906 1064.6016,538.2188 Q1063.9688,538.5469 1063.4766,539.2969 Q1062.9844,540.0469 1062.9844,541.0781 L1062.9844,542.1719 Q1062.9844,543.4063 1063.875,544.2266 Q1064.7656,545.0469 1066.3594,545.0469 Q1067.2969,545.0469 1067.9531,544.7969 Q1068.3438,544.6406 1068.7656,544.2031 Q1069.0313,543.9375 1069.1797,543.8594 Q1069.3281,543.7813 1069.5313,543.7813 Q1069.8594,543.7813 1070.1172,544.0391 Q1070.375,544.2969 1070.375,544.6406 Q1070.375,544.9844 1070.0313,545.3906 Q1069.5313,545.9688 1068.7344,546.2969 Q1067.6563,546.75 1066.3594,546.75 Q1064.8438,546.75 1063.6406,546.125 Q1062.6563,545.625 1061.9688,544.5547 Q1061.2813,543.4844 1061.2813,542.2031 L1061.2813,541.0469 Q1061.2813,539.7188 1061.8984,538.5703 Q1062.5156,537.4219 1063.6094,536.8047 Q1064.7031,536.1875 1065.9375,536.1875 Q1066.6719,536.1875 1067.3203,536.3516 Q1067.9688,536.5156 1068.5156,536.875 Z " fill="#000000"/><text fill="#000000" font-family="sans-serif" font-size="12" lengthAdjust="spacing" textLength="63" x="1086.25" y="545.9102">NurseStore</text><line style="stroke:#A80036;stroke-width:1.5;" x1="1018" x2="1185" y1="557" y2="557"/><line style="stroke:#A80036;stroke-width:1.5;" x1="1018" x2="1185" y1="565" y2="565"/><ellipse cx="1028" cy="576" fill="#84BE84" rx="3" ry="3" style="stroke:#038048;stroke-width:1.0;"/><text fill="#000000" font-family="sans-serif" font-size="11" lengthAdjust="spacing" textLength="143" x="1037" y="580.4189">getNurseByid (LogedInNurse)</text><!--MD5=[a059576e163b46f56762f12600c49258]
class Nurse--><rect codeLine="14" fill="#FEFECE" filter="url(#fjiyq44w9fip5)" height="48" id="Nurse" style="stroke:#A80036;stroke-width:1.5;" width="66" x="643.5" y="532"/><ellipse cx="658.5" cy="548" fill="#ADD1B2" rx="11" ry="11" style="stroke:#A80036;stroke-width:1.0;"/><path d="M661.2656,543.875 Q661.4219,543.6563 661.6094,543.5469 Q661.7969,543.4375 662.0156,543.4375 Q662.3906,543.4375 662.625,543.6953 Q662.8594,543.9531 662.8594,544.5625 L662.8594,546.0156 Q662.8594,546.625 662.625,546.8906 Q662.3906,547.1563 662.0156,547.1563 Q661.6719,547.1563 661.4688,546.9531 Q661.2656,546.7656 661.1563,546.25 Q661.1094,545.8906 660.9219,545.7031 Q660.5938,545.3281 659.9844,545.1094 Q659.375,544.8906 658.75,544.8906 Q657.9844,544.8906 657.3516,545.2188 Q656.7188,545.5469 656.2266,546.2969 Q655.7344,547.0469 655.7344,548.0781 L655.7344,549.1719 Q655.7344,550.4063 656.625,551.2266 Q657.5156,552.0469 659.1094,552.0469 Q660.0469,552.0469 660.7031,551.7969 Q661.0938,551.6406 661.5156,551.2031 Q661.7813,550.9375 661.9297,550.8594 Q662.0781,550.7813 662.2813,550.7813 Q662.6094,550.7813 662.8672,551.0391 Q663.125,551.2969 663.125,551.6406 Q663.125,551.9844 662.7813,552.3906 Q662.2813,552.9688 661.4844,553.2969 Q660.4063,553.75 659.1094,553.75 Q657.5938,553.75 656.3906,553.125 Q655.4063,552.625 654.7188,551.5547 Q654.0313,550.4844 654.0313,549.2031 L654.0313,548.0469 Q654.0313,546.7188 654.6484,545.5703 Q655.2656,544.4219 656.3594,543.8047 Q657.4531,543.1875 658.6875,543.1875 Q659.4219,543.1875 660.0703,543.3516 Q660.7188,543.5156 661.2656,543.875 Z " fill="#000000"/><text fill="#000000" font-family="sans-serif" font-size="12" lengthAdjust="spacing" textLength="34" x="672.5" y="552.9102">Nurse</text><line style="stroke:#A80036;stroke-width:1.5;" x1="644.5" x2="708.5" y1="564" y2="564"/><line style="stroke:#A80036;stroke-width:1.5;" x1="644.5" x2="708.5" y1="572" y2="572"/><!--MD5=[c4593935f45e4a2a0cefc4788932b53f]
class SnsUser--><rect codeLine="18" fill="#FEFECE" filter="url(#fjiyq44w9fip5)" height="48" id="SnsUser" style="stroke:#A80036;stroke-width:1.5;" width="81" x="527" y="532"/><ellipse cx="542" cy="548" fill="#ADD1B2" rx="11" ry="11" style="stroke:#A80036;stroke-width:1.0;"/><path d="M544.7656,543.875 Q544.9219,543.6563 545.1094,543.5469 Q545.2969,543.4375 545.5156,543.4375 Q545.8906,543.4375 546.125,543.6953 Q546.3594,543.9531 546.3594,544.5625 L546.3594,546.0156 Q546.3594,546.625 546.125,546.8906 Q545.8906,547.1563 545.5156,547.1563 Q545.1719,547.1563 544.9688,546.9531 Q544.7656,546.7656 544.6563,546.25 Q544.6094,545.8906 544.4219,545.7031 Q544.0938,545.3281 543.4844,545.1094 Q542.875,544.8906 542.25,544.8906 Q541.4844,544.8906 540.8516,545.2188 Q540.2188,545.5469 539.7266,546.2969 Q539.2344,547.0469 539.2344,548.0781 L539.2344,549.1719 Q539.2344,550.4063 540.125,551.2266 Q541.0156,552.0469 542.6094,552.0469 Q543.5469,552.0469 544.2031,551.7969 Q544.5938,551.6406 545.0156,551.2031 Q545.2813,550.9375 545.4297,550.8594 Q545.5781,550.7813 545.7813,550.7813 Q546.1094,550.7813 546.3672,551.0391 Q546.625,551.2969 546.625,551.6406 Q546.625,551.9844 546.2813,552.3906 Q545.7813,552.9688 544.9844,553.2969 Q543.9063,553.75 542.6094,553.75 Q541.0938,553.75 539.8906,553.125 Q538.9063,552.625 538.2188,551.5547 Q537.5313,550.4844 537.5313,549.2031 L537.5313,548.0469 Q537.5313,546.7188 538.1484,545.5703 Q538.7656,544.4219 539.8594,543.8047 Q540.9531,543.1875 542.1875,543.1875 Q542.9219,543.1875 543.5703,543.3516 Q544.2188,543.5156 544.7656,543.875 Z " fill="#000000"/><text fill="#000000" font-family="sans-serif" font-size="12" lengthAdjust="spacing" textLength="49" x="556" y="552.9102">SnsUser</text><line style="stroke:#A80036;stroke-width:1.5;" x1="528" x2="607" y1="564" y2="564"/><line style="stroke:#A80036;stroke-width:1.5;" x1="528" x2="607" y1="572" y2="572"/><!--MD5=[16e898dea44373438d7a6991ca77efa0]
class VaccineStore--><rect codeLine="23" fill="#FEFECE" filter="url(#fjiyq44w9fip5)" height="75.6719" id="VaccineStore" style="stroke:#A80036;stroke-width:1.5;" width="126" x="1221.5" y="518"/><ellipse cx="1246.4" cy="534" fill="#ADD1B2" rx="11" ry="11" style="stroke:#A80036;stroke-width:1.0;"/><path d="M1249.1656,529.875 Q1249.3219,529.6563 1249.5094,529.5469 Q1249.6969,529.4375 1249.9156,529.4375 Q1250.2906,529.4375 1250.525,529.6953 Q1250.7594,529.9531 1250.7594,530.5625 L1250.7594,532.0156 Q1250.7594,532.625 1250.525,532.8906 Q1250.2906,533.1563 1249.9156,533.1563 Q1249.5719,533.1563 1249.3688,532.9531 Q1249.1656,532.7656 1249.0563,532.25 Q1249.0094,531.8906 1248.8219,531.7031 Q1248.4938,531.3281 1247.8844,531.1094 Q1247.275,530.8906 1246.65,530.8906 Q1245.8844,530.8906 1245.2516,531.2188 Q1244.6188,531.5469 1244.1266,532.2969 Q1243.6344,533.0469 1243.6344,534.0781 L1243.6344,535.1719 Q1243.6344,536.4063 1244.525,537.2266 Q1245.4156,538.0469 1247.0094,538.0469 Q1247.9469,538.0469 1248.6031,537.7969 Q1248.9938,537.6406 1249.4156,537.2031 Q1249.6813,536.9375 1249.8297,536.8594 Q1249.9781,536.7813 1250.1813,536.7813 Q1250.5094,536.7813 1250.7672,537.0391 Q1251.025,537.2969 1251.025,537.6406 Q1251.025,537.9844 1250.6813,538.3906 Q1250.1813,538.9688 1249.3844,539.2969 Q1248.3063,539.75 1247.0094,539.75 Q1245.4938,539.75 1244.2906,539.125 Q1243.3063,538.625 1242.6188,537.5547 Q1241.9313,536.4844 1241.9313,535.2031 L1241.9313,534.0469 Q1241.9313,532.7188 1242.5484,531.5703 Q1243.1656,530.4219 1244.2594,529.8047 Q1245.3531,529.1875 1246.5875,529.1875 Q1247.3219,529.1875 1247.9703,529.3516 Q1248.6188,529.5156 1249.1656,529.875 Z " fill="#000000"/><text fill="#000000" font-family="sans-serif" font-size="12" lengthAdjust="spacing" textLength="72" x="1262.6" y="538.9102">VaccineStore</text><line style="stroke:#A80036;stroke-width:1.5;" x1="1222.5" x2="1346.5" y1="550" y2="550"/><line style="stroke:#A80036;stroke-width:1.5;" x1="1222.5" x2="1346.5" y1="558" y2="558"/><ellipse cx="1232.5" cy="569" fill="#84BE84" rx="3" ry="3" style="stroke:#038048;stroke-width:1.0;"/><text fill="#000000" font-family="sans-serif" font-size="11" lengthAdjust="spacing" textLength="100" x="1241.5" y="573.4189">CreateVaccineList ()</text><ellipse cx="1232.5" cy="582.8359" fill="#84BE84" rx="3" ry="3" style="stroke:#038048;stroke-width:1.0;"/><text fill="#000000" font-family="sans-serif" font-size="11" lengthAdjust="spacing" textLength="66" x="1241.5" y="587.2549">getVaccine ()</text><!--MD5=[19e445fc4d3b48519cbe33da05496394]
class Vaccine--><rect codeLine="28" fill="#FEFECE" filter="url(#fjiyq44w9fip5)" height="48" id="Vaccine" style="stroke:#A80036;stroke-width:1.5;" width="75" x="907" y="532"/><ellipse cx="922" cy="548" fill="#ADD1B2" rx="11" ry="11" style="stroke:#A80036;stroke-width:1.0;"/><path d="M924.7656,543.875 Q924.9219,543.6563 925.1094,543.5469 Q925.2969,543.4375 925.5156,543.4375 Q925.8906,543.4375 926.125,543.6953 Q926.3594,543.9531 926.3594,544.5625 L926.3594,546.0156 Q926.3594,546.625 926.125,546.8906 Q925.8906,547.1563 925.5156,547.1563 Q925.1719,547.1563 924.9688,546.9531 Q924.7656,546.7656 924.6563,546.25 Q924.6094,545.8906 924.4219,545.7031 Q924.0938,545.3281 923.4844,545.1094 Q922.875,544.8906 922.25,544.8906 Q921.4844,544.8906 920.8516,545.2188 Q920.2188,545.5469 919.7266,546.2969 Q919.2344,547.0469 919.2344,548.0781 L919.2344,549.1719 Q919.2344,550.4063 920.125,551.2266 Q921.0156,552.0469 922.6094,552.0469 Q923.5469,552.0469 924.2031,551.7969 Q924.5938,551.6406 925.0156,551.2031 Q925.2813,550.9375 925.4297,550.8594 Q925.5781,550.7813 925.7813,550.7813 Q926.1094,550.7813 926.3672,551.0391 Q926.625,551.2969 926.625,551.6406 Q926.625,551.9844 926.2813,552.3906 Q925.7813,552.9688 924.9844,553.2969 Q923.9063,553.75 922.6094,553.75 Q921.0938,553.75 919.8906,553.125 Q918.9063,552.625 918.2188,551.5547 Q917.5313,550.4844 917.5313,549.2031 L917.5313,548.0469 Q917.5313,546.7188 918.1484,545.5703 Q918.7656,544.4219 919.8594,543.8047 Q920.9531,543.1875 922.1875,543.1875 Q922.9219,543.1875 923.5703,543.3516 Q924.2188,543.5156 924.7656,543.875 Z " fill="#000000"/><text fill="#000000" font-family="sans-serif" font-size="12" lengthAdjust="spacing" textLength="43" x="936" y="552.9102">Vaccine</text><line style="stroke:#A80036;stroke-width:1.5;" x1="908" x2="981" y1="564" y2="564"/><line style="stroke:#A80036;stroke-width:1.5;" x1="908" x2="981" y1="572" y2="572"/><!--MD5=[0477ed937fc025f73336243a9c4b23f5]
class VaccineScheduleStore--><rect codeLine="32" fill="#FEFECE" filter="url(#fjiyq44w9fip5)" height="186.3594" id="VaccineScheduleStore" style="stroke:#A80036;stroke-width:1.5;" width="492" x="1382.5" y="463"/><ellipse cx="1562.25" cy="479" fill="#ADD1B2" rx="11" ry="11" style="stroke:#A80036;stroke-width:1.0;"/><path d="M1565.0156,474.875 Q1565.1719,474.6563 1565.3594,474.5469 Q1565.5469,474.4375 1565.7656,474.4375 Q1566.1406,474.4375 1566.375,474.6953 Q1566.6094,474.9531 1566.6094,475.5625 L1566.6094,477.0156 Q1566.6094,477.625 1566.375,477.8906 Q1566.1406,478.1563 1565.7656,478.1563 Q1565.4219,478.1563 1565.2188,477.9531 Q1565.0156,477.7656 1564.9063,477.25 Q1564.8594,476.8906 1564.6719,476.7031 Q1564.3438,476.3281 1563.7344,476.1094 Q1563.125,475.8906 1562.5,475.8906 Q1561.7344,475.8906 1561.1016,476.2188 Q1560.4688,476.5469 1559.9766,477.2969 Q1559.4844,478.0469 1559.4844,479.0781 L1559.4844,480.1719 Q1559.4844,481.4063 1560.375,482.2266 Q1561.2656,483.0469 1562.8594,483.0469 Q1563.7969,483.0469 1564.4531,482.7969 Q1564.8438,482.6406 1565.2656,482.2031 Q1565.5313,481.9375 1565.6797,481.8594 Q1565.8281,481.7813 1566.0313,481.7813 Q1566.3594,481.7813 1566.6172,482.0391 Q1566.875,482.2969 1566.875,482.6406 Q1566.875,482.9844 1566.5313,483.3906 Q1566.0313,483.9688 1565.2344,484.2969 Q1564.1563,484.75 1562.8594,484.75 Q1561.3438,484.75 1560.1406,484.125 Q1559.1563,483.625 1558.4688,482.5547 Q1557.7813,481.4844 1557.7813,480.2031 L1557.7813,479.0469 Q1557.7813,477.7188 1558.3984,476.5703 Q1559.0156,475.4219 1560.1094,474.8047 Q1561.2031,474.1875 1562.4375,474.1875 Q1563.1719,474.1875 1563.8203,474.3516 Q1564.4688,474.5156 1565.0156,474.875 Z " fill="#000000"/><text fill="#000000" font-family="sans-serif" font-size="12" lengthAdjust="spacing" textLength="124" x="1582.75" y="483.9102">VaccineScheduleStore</text><line style="stroke:#A80036;stroke-width:1.5;" x1="1383.5" x2="1873.5" y1="495" y2="495"/><line style="stroke:#A80036;stroke-width:1.5;" x1="1383.5" x2="1873.5" y1="503" y2="503"/><ellipse cx="1393.5" cy="514" fill="#84BE84" rx="3" ry="3" style="stroke:#038048;stroke-width:1.0;"/><text fill="#000000" font-family="sans-serif" font-size="11" lengthAdjust="spacing" textLength="104" x="1402.5" y="518.4189">getlistofSnsUsers (N)</text><ellipse cx="1393.5" cy="527.8359" fill="#84BE84" rx="3" ry="3" style="stroke:#038048;stroke-width:1.0;"/><text fill="#000000" font-family="sans-serif" font-size="11" lengthAdjust="spacing" textLength="121" x="1402.5" y="532.2549">getSnsUserThatArived ()</text><ellipse cx="1393.5" cy="541.6719" fill="#84BE84" rx="3" ry="3" style="stroke:#038048;stroke-width:1.0;"/><text fill="#000000" font-family="sans-serif" font-size="11" lengthAdjust="spacing" textLength="59" x="1402.5" y="546.0908">createList ()</text><ellipse cx="1393.5" cy="555.5078" fill="#84BE84" rx="3" ry="3" style="stroke:#038048;stroke-width:1.0;"/><text fill="#000000" font-family="sans-serif" font-size="11" lengthAdjust="spacing" textLength="96" x="1402.5" y="559.9268">AdSnsUsertoUL (U)</text><ellipse cx="1393.5" cy="569.3438" fill="#84BE84" rx="3" ry="3" style="stroke:#038048;stroke-width:1.0;"/><text fill="#000000" font-family="sans-serif" font-size="11" lengthAdjust="spacing" textLength="459" x="1402.5" y="573.7627">CreateVaccineAdministration (AdministrationDateTime, User.id, DoseNumber, nextVaccinedate)</text><ellipse cx="1393.5" cy="583.1797" fill="#84BE84" rx="3" ry="3" style="stroke:#038048;stroke-width:1.0;"/><text fill="#000000" font-family="sans-serif" font-size="11" lengthAdjust="spacing" textLength="466" x="1402.5" y="587.5986">ValidateVaccineAdministration (AdministrationDateTime, User.id, DoseNumber, nextVaccinedate)</text><ellipse cx="1393.5" cy="597.0156" fill="#84BE84" rx="3" ry="3" style="stroke:#038048;stroke-width:1.0;"/><text fill="#000000" font-family="sans-serif" font-size="11" lengthAdjust="spacing" textLength="156" x="1402.5" y="601.4346">validateVaccineAdministration ()</text><ellipse cx="1393.5" cy="610.8516" fill="#84BE84" rx="3" ry="3" style="stroke:#038048;stroke-width:1.0;"/><text fill="#000000" font-family="sans-serif" font-size="11" lengthAdjust="spacing" textLength="137" x="1402.5" y="615.2705">addVaccineAdministration ()</text><ellipse cx="1393.5" cy="624.6875" fill="#84BE84" rx="3" ry="3" style="stroke:#038048;stroke-width:1.0;"/><text fill="#000000" font-family="sans-serif" font-size="11" lengthAdjust="spacing" textLength="228" x="1402.5" y="629.1064">getSmsSendDateTime (AdministrationDateTime)</text><ellipse cx="1393.5" cy="638.5234" fill="#84BE84" rx="3" ry="3" style="stroke:#038048;stroke-width:1.0;"/><text fill="#000000" font-family="sans-serif" font-size="11" lengthAdjust="spacing" textLength="241" x="1402.5" y="642.9424">SendSMS (AdministrationDateTime, SmsDateTime)</text><!--MD5=[cd4ce1c0d44638ff9f42448de30e6b92]
class VaccineSchedule--><rect codeLine="46" fill="#FEFECE" filter="url(#fjiyq44w9fip5)" height="48" id="VaccineSchedule" style="stroke:#A80036;stroke-width:1.5;" width="127" x="745" y="532"/><ellipse cx="760" cy="548" fill="#ADD1B2" rx="11" ry="11" style="stroke:#A80036;stroke-width:1.0;"/><path d="M762.7656,543.875 Q762.9219,543.6563 763.1094,543.5469 Q763.2969,543.4375 763.5156,543.4375 Q763.8906,543.4375 764.125,543.6953 Q764.3594,543.9531 764.3594,544.5625 L764.3594,546.0156 Q764.3594,546.625 764.125,546.8906 Q763.8906,547.1563 763.5156,547.1563 Q763.1719,547.1563 762.9688,546.9531 Q762.7656,546.7656 762.6563,546.25 Q762.6094,545.8906 762.4219,545.7031 Q762.0938,545.3281 761.4844,545.1094 Q760.875,544.8906 760.25,544.8906 Q759.4844,544.8906 758.8516,545.2188 Q758.2188,545.5469 757.7266,546.2969 Q757.2344,547.0469 757.2344,548.0781 L757.2344,549.1719 Q757.2344,550.4063 758.125,551.2266 Q759.0156,552.0469 760.6094,552.0469 Q761.5469,552.0469 762.2031,551.7969 Q762.5938,551.6406 763.0156,551.2031 Q763.2813,550.9375 763.4297,550.8594 Q763.5781,550.7813 763.7813,550.7813 Q764.1094,550.7813 764.3672,551.0391 Q764.625,551.2969 764.625,551.6406 Q764.625,551.9844 764.2813,552.3906 Q763.7813,552.9688 762.9844,553.2969 Q761.9063,553.75 760.6094,553.75 Q759.0938,553.75 757.8906,553.125 Q756.9063,552.625 756.2188,551.5547 Q755.5313,550.4844 755.5313,549.2031 L755.5313,548.0469 Q755.5313,546.7188 756.1484,545.5703 Q756.7656,544.4219 757.8594,543.8047 Q758.9531,543.1875 760.1875,543.1875 Q760.9219,543.1875 761.5703,543.3516 Q762.2188,543.5156 762.7656,543.875 Z " fill="#000000"/><text fill="#000000" font-family="sans-serif" font-size="12" lengthAdjust="spacing" textLength="95" x="774" y="552.9102">VaccineSchedule</text><line style="stroke:#A80036;stroke-width:1.5;" x1="746" x2="871" y1="564" y2="564"/><line style="stroke:#A80036;stroke-width:1.5;" x1="746" x2="871" y1="572" y2="572"/><!--MD5=[107cfa23aa516ff83d0cf17a6f9fe7ba]
class VaccineAdministration--><rect codeLine="50" fill="#FEFECE" filter="url(#fjiyq44w9fip5)" height="61.8359" id="VaccineAdministration" style="stroke:#A80036;stroke-width:1.5;" width="485" x="1386" y="710"/><ellipse cx="1563.25" cy="726" fill="#ADD1B2" rx="11" ry="11" style="stroke:#A80036;stroke-width:1.0;"/><path d="M1566.0156,721.875 Q1566.1719,721.6563 1566.3594,721.5469 Q1566.5469,721.4375 1566.7656,721.4375 Q1567.1406,721.4375 1567.375,721.6953 Q1567.6094,721.9531 1567.6094,722.5625 L1567.6094,724.0156 Q1567.6094,724.625 1567.375,724.8906 Q1567.1406,725.1563 1566.7656,725.1563 Q1566.4219,725.1563 1566.2188,724.9531 Q1566.0156,724.7656 1565.9063,724.25 Q1565.8594,723.8906 1565.6719,723.7031 Q1565.3438,723.3281 1564.7344,723.1094 Q1564.125,722.8906 1563.5,722.8906 Q1562.7344,722.8906 1562.1016,723.2188 Q1561.4688,723.5469 1560.9766,724.2969 Q1560.4844,725.0469 1560.4844,726.0781 L1560.4844,727.1719 Q1560.4844,728.4063 1561.375,729.2266 Q1562.2656,730.0469 1563.8594,730.0469 Q1564.7969,730.0469 1565.4531,729.7969 Q1565.8438,729.6406 1566.2656,729.2031 Q1566.5313,728.9375 1566.6797,728.8594 Q1566.8281,728.7813 1567.0313,728.7813 Q1567.3594,728.7813 1567.6172,729.0391 Q1567.875,729.2969 1567.875,729.6406 Q1567.875,729.9844 1567.5313,730.3906 Q1567.0313,730.9688 1566.2344,731.2969 Q1565.1563,731.75 1563.8594,731.75 Q1562.3438,731.75 1561.1406,731.125 Q1560.1563,730.625 1559.4688,729.5547 Q1558.7813,728.4844 1558.7813,727.2031 L1558.7813,726.0469 Q1558.7813,724.7188 1559.3984,723.5703 Q1560.0156,722.4219 1561.1094,721.8047 Q1562.2031,721.1875 1563.4375,721.1875 Q1564.1719,721.1875 1564.8203,721.3516 Q1565.4688,721.5156 1566.0156,721.875 Z " fill="#000000"/><text fill="#000000" font-family="sans-serif" font-size="12" lengthAdjust="spacing" textLength="122" x="1583.75" y="730.9102">VaccineAdministration</text><line style="stroke:#A80036;stroke-width:1.5;" x1="1387" x2="1870" y1="742" y2="742"/><line style="stroke:#A80036;stroke-width:1.5;" x1="1387" x2="1870" y1="750" y2="750"/><ellipse cx="1397" cy="761" fill="#84BE84" rx="3" ry="3" style="stroke:#038048;stroke-width:1.0;"/><text fill="#000000" font-family="sans-serif" font-size="11" lengthAdjust="spacing" textLength="459" x="1406" y="765.4189">CreateVaccineAdministration (AdministrationDateTime, User.id, DoseNumber, nextVaccinedate)</text><!--MD5=[50ce86525338b32fd4377387ab7c858f]
class SmsInteface--><rect codeLine="54" fill="#FEFECE" filter="url(#fjiyq44w9fip5)" height="61.8359" id="SmsInteface" style="stroke:#A80036;stroke-width:1.5;" width="264" x="227.5" y="525"/><ellipse cx="320.75" cy="541" fill="#B4A7E5" rx="11" ry="11" style="stroke:#A80036;stroke-width:1.0;"/><path d="M321.7031,537.6406 L321.7031,544.2969 L323.4219,544.2969 Q324.0313,544.2969 324.2969,544.5313 Q324.5625,544.7656 324.5625,545.1563 Q324.5625,545.5313 324.2969,545.7656 Q324.0313,546 323.4219,546 L318.2813,546 Q317.6719,546 317.4063,545.7656 Q317.1406,545.5313 317.1406,545.1406 Q317.1406,544.7656 317.4063,544.5313 Q317.6719,544.2969 318.2813,544.2969 L320,544.2969 L320,537.6406 L318.2813,537.6406 Q317.6719,537.6406 317.4063,537.4063 Q317.1406,537.1719 317.1406,536.7813 Q317.1406,536.4063 317.4063,536.1719 Q317.6719,535.9375 318.2813,535.9375 L323.4219,535.9375 Q324.0313,535.9375 324.2969,536.1719 Q324.5625,536.4063 324.5625,536.7813 Q324.5625,537.1719 324.2969,537.4063 Q324.0313,537.6406 323.4219,537.6406 L321.7031,537.6406 Z " fill="#000000"/><text fill="#000000" font-family="sans-serif" font-size="12" font-style="italic" lengthAdjust="spacing" textLength="69" x="341.25" y="545.9102">SmsInteface</text><line style="stroke:#A80036;stroke-width:1.5;" x1="228.5" x2="490.5" y1="557" y2="557"/><line style="stroke:#A80036;stroke-width:1.5;" x1="228.5" x2="490.5" y1="565" y2="565"/><ellipse cx="238.5" cy="576" fill="#84BE84" rx="3" ry="3" style="stroke:#038048;stroke-width:1.0;"/><text fill="#000000" font-family="sans-serif" font-size="11" lengthAdjust="spacing" textLength="238" x="247.5" y="580.4189">SendSMS(AdministrationDateTime, SmsDateTime)</text><!--MD5=[d0a5a65fe6f1caee67ac0dcb4193126d]
class VaccineAdministrationUI--><rect codeLine="58" fill="#FEFECE" filter="url(#fjiyq44w9fip5)" height="103.3438" id="VaccineAdministrationUI" style="stroke:#A80036;stroke-width:1.5;" width="343" x="1113" y="7"/><ellipse cx="1213.25" cy="23" fill="#ADD1B2" rx="11" ry="11" style="stroke:#A80036;stroke-width:1.0;"/><path d="M1216.0156,18.875 Q1216.1719,18.6563 1216.3594,18.5469 Q1216.5469,18.4375 1216.7656,18.4375 Q1217.1406,18.4375 1217.375,18.6953 Q1217.6094,18.9531 1217.6094,19.5625 L1217.6094,21.0156 Q1217.6094,21.625 1217.375,21.8906 Q1217.1406,22.1563 1216.7656,22.1563 Q1216.4219,22.1563 1216.2188,21.9531 Q1216.0156,21.7656 1215.9063,21.25 Q1215.8594,20.8906 1215.6719,20.7031 Q1215.3438,20.3281 1214.7344,20.1094 Q1214.125,19.8906 1213.5,19.8906 Q1212.7344,19.8906 1212.1016,20.2188 Q1211.4688,20.5469 1210.9766,21.2969 Q1210.4844,22.0469 1210.4844,23.0781 L1210.4844,24.1719 Q1210.4844,25.4063 1211.375,26.2266 Q1212.2656,27.0469 1213.8594,27.0469 Q1214.7969,27.0469 1215.4531,26.7969 Q1215.8438,26.6406 1216.2656,26.2031 Q1216.5313,25.9375 1216.6797,25.8594 Q1216.8281,25.7813 1217.0313,25.7813 Q1217.3594,25.7813 1217.6172,26.0391 Q1217.875,26.2969 1217.875,26.6406 Q1217.875,26.9844 1217.5313,27.3906 Q1217.0313,27.9688 1216.2344,28.2969 Q1215.1563,28.75 1213.8594,28.75 Q1212.3438,28.75 1211.1406,28.125 Q1210.1563,27.625 1209.4688,26.5547 Q1208.7813,25.4844 1208.7813,24.2031 L1208.7813,23.0469 Q1208.7813,21.7188 1209.3984,20.5703 Q1210.0156,19.4219 1211.1094,18.8047 Q1212.2031,18.1875 1213.4375,18.1875 Q1214.1719,18.1875 1214.8203,18.3516 Q1215.4688,18.5156 1216.0156,18.875 Z " fill="#000000"/><text fill="#000000" font-family="sans-serif" font-size="12" lengthAdjust="spacing" textLength="134" x="1233.75" y="27.9102">VaccineAdministrationUI</text><line style="stroke:#A80036;stroke-width:1.5;" x1="1114" x2="1455" y1="39" y2="39"/><line style="stroke:#A80036;stroke-width:1.5;" x1="1114" x2="1455" y1="47" y2="47"/><ellipse cx="1124" cy="58" fill="#84BE84" rx="3" ry="3" style="stroke:#038048;stroke-width:1.0;"/><text fill="#000000" font-family="sans-serif" font-size="11" lengthAdjust="spacing" textLength="150" x="1133" y="62.4189">getSnsUDTOListOfSnsUsers ()</text><ellipse cx="1124" cy="71.8359" fill="#84BE84" rx="3" ry="3" style="stroke:#038048;stroke-width:1.0;"/><text fill="#000000" font-family="sans-serif" font-size="11" lengthAdjust="spacing" textLength="89" x="1133" y="76.2549">getVaccinesList ()</text><ellipse cx="1124" cy="85.6719" fill="#84BE84" rx="3" ry="3" style="stroke:#038048;stroke-width:1.0;"/><text fill="#000000" font-family="sans-serif" font-size="11" lengthAdjust="spacing" textLength="317" x="1133" y="90.0908">CreateVaccineAdministration (vaccine, DosageNumber, SnsUser)</text><ellipse cx="1124" cy="99.5078" fill="#84BE84" rx="3" ry="3" style="stroke:#038048;stroke-width:1.0;"/><text fill="#000000" font-family="sans-serif" font-size="11" lengthAdjust="spacing" textLength="143" x="1133" y="103.9268">saveVaccineAdministration ()</text><!--MD5=[1128c2817e8932270c5bed2adaae6e0e]
class VaccineAdministrationController--><rect codeLine="65" fill="#FEFECE" filter="url(#fjiyq44w9fip5)" height="214.0313" id="VaccineAdministrationController" style="stroke:#A80036;stroke-width:1.5;" width="485" x="1042" y="171"/><ellipse cx="1192.25" cy="187" fill="#ADD1B2" rx="11" ry="11" style="stroke:#A80036;stroke-width:1.0;"/><path d="M1195.0156,182.875 Q1195.1719,182.6563 1195.3594,182.5469 Q1195.5469,182.4375 1195.7656,182.4375 Q1196.1406,182.4375 1196.375,182.6953 Q1196.6094,182.9531 1196.6094,183.5625 L1196.6094,185.0156 Q1196.6094,185.625 1196.375,185.8906 Q1196.1406,186.1563 1195.7656,186.1563 Q1195.4219,186.1563 1195.2188,185.9531 Q1195.0156,185.7656 1194.9063,185.25 Q1194.8594,184.8906 1194.6719,184.7031 Q1194.3438,184.3281 1193.7344,184.1094 Q1193.125,183.8906 1192.5,183.8906 Q1191.7344,183.8906 1191.1016,184.2188 Q1190.4688,184.5469 1189.9766,185.2969 Q1189.4844,186.0469 1189.4844,187.0781 L1189.4844,188.1719 Q1189.4844,189.4063 1190.375,190.2266 Q1191.2656,191.0469 1192.8594,191.0469 Q1193.7969,191.0469 1194.4531,190.7969 Q1194.8438,190.6406 1195.2656,190.2031 Q1195.5313,189.9375 1195.6797,189.8594 Q1195.8281,189.7813 1196.0313,189.7813 Q1196.3594,189.7813 1196.6172,190.0391 Q1196.875,190.2969 1196.875,190.6406 Q1196.875,190.9844 1196.5313,191.3906 Q1196.0313,191.9688 1195.2344,192.2969 Q1194.1563,192.75 1192.8594,192.75 Q1191.3438,192.75 1190.1406,192.125 Q1189.1563,191.625 1188.4688,190.5547 Q1187.7813,189.4844 1187.7813,188.2031 L1187.7813,187.0469 Q1187.7813,185.7188 1188.3984,184.5703 Q1189.0156,183.4219 1190.1094,182.8047 Q1191.2031,182.1875 1192.4375,182.1875 Q1193.1719,182.1875 1193.8203,182.3516 Q1194.4688,182.5156 1195.0156,182.875 Z " fill="#000000"/><text fill="#000000" font-family="sans-serif" font-size="12" lengthAdjust="spacing" textLength="176" x="1212.75" y="191.9102">VaccineAdministrationController</text><line style="stroke:#A80036;stroke-width:1.5;" x1="1043" x2="1526" y1="203" y2="203"/><line style="stroke:#A80036;stroke-width:1.5;" x1="1043" x2="1526" y1="211" y2="211"/><ellipse cx="1053" cy="222" fill="#84BE84" rx="3" ry="3" style="stroke:#038048;stroke-width:1.0;"/><text fill="#000000" font-family="sans-serif" font-size="11" lengthAdjust="spacing" textLength="74" x="1062" y="226.4189">getNursetore ()</text><ellipse cx="1053" cy="235.8359" fill="#84BE84" rx="3" ry="3" style="stroke:#038048;stroke-width:1.0;"/><text fill="#000000" font-family="sans-serif" font-size="11" lengthAdjust="spacing" textLength="143" x="1062" y="240.2549">getNurseByid (LogedInNurse)</text><ellipse cx="1053" cy="249.6719" fill="#84BE84" rx="3" ry="3" style="stroke:#038048;stroke-width:1.0;"/><text fill="#000000" font-family="sans-serif" font-size="11" lengthAdjust="spacing" textLength="137" x="1062" y="254.0908">getVaccineScheduleStore ()</text><ellipse cx="1053" cy="263.5078" fill="#84BE84" rx="3" ry="3" style="stroke:#038048;stroke-width:1.0;"/><text fill="#000000" font-family="sans-serif" font-size="11" lengthAdjust="spacing" textLength="104" x="1062" y="267.9268">getlistofSnsUsers (N)</text><ellipse cx="1053" cy="277.3438" fill="#84BE84" rx="3" ry="3" style="stroke:#038048;stroke-width:1.0;"/><text fill="#000000" font-family="sans-serif" font-size="11" lengthAdjust="spacing" textLength="45" x="1062" y="281.7627">toDto UL)</text><ellipse cx="1053" cy="291.1797" fill="#84BE84" rx="3" ry="3" style="stroke:#038048;stroke-width:1.0;"/><text fill="#000000" font-family="sans-serif" font-size="11" lengthAdjust="spacing" textLength="98" x="1062" y="295.5986">getVaccinesStore ()</text><ellipse cx="1053" cy="305.0156" fill="#84BE84" rx="3" ry="3" style="stroke:#038048;stroke-width:1.0;"/><text fill="#000000" font-family="sans-serif" font-size="11" lengthAdjust="spacing" textLength="100" x="1062" y="309.4346">CreateVaccineList ()</text><ellipse cx="1053" cy="318.8516" fill="#84BE84" rx="3" ry="3" style="stroke:#038048;stroke-width:1.0;"/><text fill="#000000" font-family="sans-serif" font-size="11" lengthAdjust="spacing" textLength="66" x="1062" y="323.2705">getVaccine ()</text><ellipse cx="1053" cy="332.6875" fill="#84BE84" rx="3" ry="3" style="stroke:#038048;stroke-width:1.0;"/><text fill="#000000" font-family="sans-serif" font-size="11" lengthAdjust="spacing" textLength="89" x="1062" y="337.1064">addVaccine (Vac)</text><ellipse cx="1053" cy="346.5234" fill="#84BE84" rx="3" ry="3" style="stroke:#038048;stroke-width:1.0;"/><text fill="#000000" font-family="sans-serif" font-size="11" lengthAdjust="spacing" textLength="66" x="1062" y="350.9424">getdatetime ()</text><ellipse cx="1053" cy="360.3594" fill="#84BE84" rx="3" ry="3" style="stroke:#038048;stroke-width:1.0;"/><text fill="#000000" font-family="sans-serif" font-size="11" lengthAdjust="spacing" textLength="459" x="1062" y="364.7783">CreateVaccineAdministration (AdministrationDateTime, User.id, DoseNumber, nextVaccinedate)</text><ellipse cx="1053" cy="374.1953" fill="#84BE84" rx="3" ry="3" style="stroke:#038048;stroke-width:1.0;"/><text fill="#000000" font-family="sans-serif" font-size="11" lengthAdjust="spacing" textLength="143" x="1062" y="378.6143">saveVaccineAdministration ()</text><!--MD5=[17d776304760d17bcc13ba401441cbdd]
class SMSNotification--><rect codeLine="80" fill="#FEFECE" filter="url(#fjiyq44w9fip5)" height="48" id="SMSNotification" style="stroke:#A80036;stroke-width:1.5;" width="118" x="300.5" y="717"/><ellipse cx="315.5" cy="733" fill="#ADD1B2" rx="11" ry="11" style="stroke:#A80036;stroke-width:1.0;"/><path d="M318.2656,728.875 Q318.4219,728.6563 318.6094,728.5469 Q318.7969,728.4375 319.0156,728.4375 Q319.3906,728.4375 319.625,728.6953 Q319.8594,728.9531 319.8594,729.5625 L319.8594,731.0156 Q319.8594,731.625 319.625,731.8906 Q319.3906,732.1563 319.0156,732.1563 Q318.6719,732.1563 318.4688,731.9531 Q318.2656,731.7656 318.1563,731.25 Q318.1094,730.8906 317.9219,730.7031 Q317.5938,730.3281 316.9844,730.1094 Q316.375,729.8906 315.75,729.8906 Q314.9844,729.8906 314.3516,730.2188 Q313.7188,730.5469 313.2266,731.2969 Q312.7344,732.0469 312.7344,733.0781 L312.7344,734.1719 Q312.7344,735.4063 313.625,736.2266 Q314.5156,737.0469 316.1094,737.0469 Q317.0469,737.0469 317.7031,736.7969 Q318.0938,736.6406 318.5156,736.2031 Q318.7813,735.9375 318.9297,735.8594 Q319.0781,735.7813 319.2813,735.7813 Q319.6094,735.7813 319.8672,736.0391 Q320.125,736.2969 320.125,736.6406 Q320.125,736.9844 319.7813,737.3906 Q319.2813,737.9688 318.4844,738.2969 Q317.4063,738.75 316.1094,738.75 Q314.5938,738.75 313.3906,738.125 Q312.4063,737.625 311.7188,736.5547 Q311.0313,735.4844 311.0313,734.2031 L311.0313,733.0469 Q311.0313,731.7188 311.6484,730.5703 Q312.2656,729.4219 313.3594,728.8047 Q314.4531,728.1875 315.6875,728.1875 Q316.4219,728.1875 317.0703,728.3516 Q317.7188,728.5156 318.2656,728.875 Z " fill="#000000"/><text fill="#000000" font-family="sans-serif" font-size="12" lengthAdjust="spacing" textLength="86" x="329.5" y="737.9102">SMSNotification</text><line style="stroke:#A80036;stroke-width:1.5;" x1="301.5" x2="417.5" y1="749" y2="749"/><line style="stroke:#A80036;stroke-width:1.5;" x1="301.5" x2="417.5" y1="757" y2="757"/><!--MD5=[9fe762efc8b9cd0ebfcd4120396959e0]
class SnsUserStore--><rect fill="#FEFECE" filter="url(#fjiyq44w9fip5)" height="48" id="SnsUserStore" style="stroke:#A80036;stroke-width:1.5;" width="110" x="1909.5" y="532"/><ellipse cx="1924.5" cy="548" fill="#ADD1B2" rx="11" ry="11" style="stroke:#A80036;stroke-width:1.0;"/><path d="M1927.2656,543.875 Q1927.4219,543.6563 1927.6094,543.5469 Q1927.7969,543.4375 1928.0156,543.4375 Q1928.3906,543.4375 1928.625,543.6953 Q1928.8594,543.9531 1928.8594,544.5625 L1928.8594,546.0156 Q1928.8594,546.625 1928.625,546.8906 Q1928.3906,547.1563 1928.0156,547.1563 Q1927.6719,547.1563 1927.4688,546.9531 Q1927.2656,546.7656 1927.1563,546.25 Q1927.1094,545.8906 1926.9219,545.7031 Q1926.5938,545.3281 1925.9844,545.1094 Q1925.375,544.8906 1924.75,544.8906 Q1923.9844,544.8906 1923.3516,545.2188 Q1922.7188,545.5469 1922.2266,546.2969 Q1921.7344,547.0469 1921.7344,548.0781 L1921.7344,549.1719 Q1921.7344,550.4063 1922.625,551.2266 Q1923.5156,552.0469 1925.1094,552.0469 Q1926.0469,552.0469 1926.7031,551.7969 Q1927.0938,551.6406 1927.5156,551.2031 Q1927.7813,550.9375 1927.9297,550.8594 Q1928.0781,550.7813 1928.2813,550.7813 Q1928.6094,550.7813 1928.8672,551.0391 Q1929.125,551.2969 1929.125,551.6406 Q1929.125,551.9844 1928.7813,552.3906 Q1928.2813,552.9688 1927.4844,553.2969 Q1926.4063,553.75 1925.1094,553.75 Q1923.5938,553.75 1922.3906,553.125 Q1921.4063,552.625 1920.7188,551.5547 Q1920.0313,550.4844 1920.0313,549.2031 L1920.0313,548.0469 Q1920.0313,546.7188 1920.6484,545.5703 Q1921.2656,544.4219 1922.3594,543.8047 Q1923.4531,543.1875 1924.6875,543.1875 Q1925.4219,543.1875 1926.0703,543.3516 Q1926.7188,543.5156 1927.2656,543.875 Z " fill="#000000"/><text fill="#000000" font-family="sans-serif" font-size="12" lengthAdjust="spacing" textLength="78" x="1938.5" y="552.9102">SnsUserStore</text><line style="stroke:#A80036;stroke-width:1.5;" x1="1910.5" x2="2018.5" y1="564" y2="564"/><line style="stroke:#A80036;stroke-width:1.5;" x1="1910.5" x2="2018.5" y1="572" y2="572"/><!--MD5=[4fb7023e3ec88a8c13d55ede096a9465]
link VaccineAdministrationUI to VaccineAdministrationController--><path codeLine="85" d="M1284.5,110.22 C1284.5,126.86 1284.5,146.06 1284.5,165.38 " fill="none" id="VaccineAdministrationUI-to-VaccineAdministrationController" style="stroke:#A80036;stroke-width:1.0;stroke-dasharray:7.0,7.0;"/><polygon fill="#A80036" points="1284.5,170.83,1288.5,161.83,1284.5,165.83,1280.5,161.83,1284.5,170.83" style="stroke:#A80036;stroke-width:1.0;"/><!--MD5=[8e21eacc8261db4fae5956d938f00eb8]
link VaccineAdministrationController to Company--><path codeLine="87" d="M1042,313.74 C870.48,339.25 635.34,376.1 429.5,415 C331.59,433.5 301.03,421.38 210.5,463 C189.1,472.84 167.87,486.92 149.27,501.12 " fill="none" id="VaccineAdministrationController-to-Company" style="stroke:#A80036;stroke-width:1.0;stroke-dasharray:7.0,7.0;"/><polygon fill="#A80036" points="145.09,504.34,154.6576,502.0031,149.0467,501.2832,149.7667,495.6723,145.09,504.34" style="stroke:#A80036;stroke-width:1.0;"/><!--MD5=[b7268e32b146e25e46e644eda6c54095]
link VaccineAdministrationController to NurseStore--><path codeLine="88" d="M1041.97,284.61 C822.29,295.42 521.8,326.49 446.5,415 C366.57,508.95 885.6,415.64 999.5,463 C1029.14,475.33 1055.82,500.13 1074.45,520.88 " fill="none" id="VaccineAdministrationController-to-NurseStore" style="stroke:#A80036;stroke-width:1.0;stroke-dasharray:7.0,7.0;"/><polygon fill="#A80036" points="1077.83,524.7,1074.8582,515.3102,1074.5153,520.9567,1068.8688,520.6138,1077.83,524.7" style="stroke:#A80036;stroke-width:1.0;"/><!--MD5=[1896d85353d2c25c0b961957d9d6f14f]
link VaccineAdministrationController to SnsUserStore--><path codeLine="89" d="M1527.1,316.91 C1644.93,343.8 1784.09,388.79 1892.5,463 C1916.72,479.58 1936.56,506.81 1949.24,527.36 " fill="none" id="VaccineAdministrationController-to-SnsUserStore" style="stroke:#A80036;stroke-width:1.0;stroke-dasharray:7.0,7.0;"/><polygon fill="#A80036" points="1951.84,531.63,1950.5917,521.8606,1949.2466,527.3552,1943.752,526.01,1951.84,531.63" style="stroke:#A80036;stroke-width:1.0;"/><!--MD5=[75ea80765acc0e4883a960ce5fb160e3]
link VaccineAdministrationController to VaccineStore--><path codeLine="90" d="M1284.5,385.31 C1284.5,429.71 1284.5,478.73 1284.5,512.62 " fill="none" id="VaccineAdministrationController-to-VaccineStore" style="stroke:#A80036;stroke-width:1.0;stroke-dasharray:7.0,7.0;"/><polygon fill="#A80036" points="1284.5,517.93,1288.5,508.93,1284.5,512.93,1280.5,508.93,1284.5,517.93" style="stroke:#A80036;stroke-width:1.0;"/><!--MD5=[cbe37847bdd95157dab11cefde35fcdf]
link VaccineAdministrationController to VaccineScheduleStore--><path codeLine="91" d="M1417.01,385.31 C1447.53,409.8 1479.8,435.7 1509.7,459.68 " fill="none" id="VaccineAdministrationController-to-VaccineScheduleStore" style="stroke:#A80036;stroke-width:1.0;stroke-dasharray:7.0,7.0;"/><polygon fill="#A80036" points="1513.71,462.9,1509.1927,454.1482,1509.8098,459.7713,1504.1868,460.3885,1513.71,462.9" style="stroke:#A80036;stroke-width:1.0;"/><!--MD5=[70f5eb0462fa7b48ec5376915e99b9c9]
link VaccineScheduleStore to VaccineAdministration--><path codeLine="93" d="M1628.5,649.04 C1628.5,668.87 1628.5,688.67 1628.5,704.7 " fill="none" id="VaccineScheduleStore-to-VaccineAdministration" style="stroke:#A80036;stroke-width:1.0;stroke-dasharray:7.0,7.0;"/><polygon fill="#A80036" points="1628.5,709.99,1632.5,700.99,1628.5,704.99,1624.5,700.99,1628.5,709.99" style="stroke:#A80036;stroke-width:1.0;"/><!--MD5=[f67bbca986ce6a65e937e2da0f683c3f]
link Company to Nurse--><path codeLine="95" d="M142.04,504.48 C162,488.33 185.83,472.31 210.5,463 C363.27,405.31 413.8,442.78 577,437 C587.22,436.64 590.57,433.04 600,437 C614.92,443.27 615.85,450 625.5,463 C640.48,483.17 653.98,508.26 663.32,527.29 " fill="none" id="Company-to-Nurse" style="stroke:#A80036;stroke-width:1.0;"/><polygon fill="#A80036" points="665.6,531.99,665.2659,522.1468,663.4155,527.4925,658.0698,525.642,665.6,531.99" style="stroke:#A80036;stroke-width:1.0;"/><text fill="#000000" font-family="sans-serif" font-size="13" lengthAdjust="spacing" textLength="21" x="578" y="429.4951">has</text><!--MD5=[7ea5958ae75d1b49d8885d6c52a43a8a]
link Company to SnsUser--><path codeLine="96" d="M142.44,504.48 C162.34,488.44 186.04,472.48 210.5,463 C276.3,437.49 469.62,395.92 527,437 C555.23,457.21 564.01,498.26 566.62,526.45 " fill="none" id="Company-to-SnsUser" style="stroke:#A80036;stroke-width:1.0;"/><polygon fill="#A80036" points="567.04,531.55,570.281,522.2497,566.626,526.5672,562.3085,522.9121,567.04,531.55" style="stroke:#A80036;stroke-width:1.0;"/><text fill="#000000" font-family="sans-serif" font-size="13" lengthAdjust="spacing" textLength="21" x="505" y="429.4951">has</text><!--MD5=[c29c8d42883934cbaf5793c72a334947]
link Company to Vaccine--><path codeLine="97" d="M143.16,504.28 C162.94,488.42 186.39,472.64 210.5,463 C309.1,423.6 341.97,442.79 448,437 C546.14,431.64 805.68,411.68 889.5,463 C912.85,477.3 927.45,505.52 935.69,527.15 " fill="none" id="Company-to-Vaccine" style="stroke:#A80036;stroke-width:1.0;"/><polygon fill="#A80036" points="937.45,531.93,938.0976,522.1025,935.7241,527.2373,930.5893,524.8639,937.45,531.93" style="stroke:#A80036;stroke-width:1.0;"/><text fill="#000000" font-family="sans-serif" font-size="13" lengthAdjust="spacing" textLength="21" x="449" y="429.4951">has</text><!--MD5=[1f6e9f7a78b09a1f4e7f2df8036076c6]
link Company to VaccineSchedule--><path codeLine="98" d="M142.79,504.36 C162.64,488.41 186.21,472.55 210.5,463 C330.32,415.91 370.46,429.71 499,437 C601.05,442.79 637.02,415.46 727.5,463 C755.22,477.56 777.7,505.84 791.89,527.41 " fill="none" id="Company-to-VaccineSchedule" style="stroke:#A80036;stroke-width:1.0;"/><polygon fill="#A80036" points="794.61,531.63,793.0845,521.9,791.8961,527.4306,786.3655,526.2422,794.61,531.63" style="stroke:#A80036;stroke-width:1.0;"/><text fill="#000000" font-family="sans-serif" font-size="13" lengthAdjust="spacing" textLength="21" x="477" y="429.4951">has</text><!--MD5=[526cae606dfd2670dce9c00a5c2e30e8]
link Company to SmsInteface--><path codeLine="99" d="M170.18,556 C186.7,556 204.5,556 222.34,556 " fill="none" id="Company-to-SmsInteface" style="stroke:#A80036;stroke-width:1.0;"/><polygon fill="#A80036" points="227.37,556,218.37,552,222.37,556,218.37,560,227.37,556" style="stroke:#A80036;stroke-width:1.0;"/><text fill="#000000" font-family="sans-serif" font-size="13" lengthAdjust="spacing" textLength="21" x="188.25" y="549.4951">has</text><!--MD5=[c90446b48523435df1e566c826f12959]
link SmsInteface to SMSNotification--><path codeLine="101" d="M359.5,587.22 C359.5,621.81 359.5,678.04 359.5,711.77 " fill="none" id="SmsInteface-to-SMSNotification" style="stroke:#A80036;stroke-width:1.0;stroke-dasharray:7.0,7.0;"/><polygon fill="#A80036" points="359.5,716.99,363.5,707.99,359.5,711.99,355.5,707.99,359.5,716.99" style="stroke:#A80036;stroke-width:1.0;"/><!--MD5=[e63d418e13be27155676311cc2830060]
@startuml


class Company{
    -designation
    +getNursetore ()
    +getVaccineScheduleStore ()
    +getVaccinesStore ()    
}

class NurseStore{
    +getNurseByid (LogedInNurse)
}

class Nurse{

}

class  SnsUser{

}


class VaccineStore{
    +CreateVaccineList ()
    +getVaccine ()
}

class Vaccine{
    
}

class VaccineScheduleStore{
    +getlistofSnsUsers (N)
    +getSnsUserThatArived ()
    +createList ()
    +AdSnsUsertoUL (U)
    +CreateVaccineAdministration (AdministrationDateTime, User.id, DoseNumber, nextVaccinedate)
    +ValidateVaccineAdministration (AdministrationDateTime, User.id, DoseNumber, nextVaccinedate)
    +validateVaccineAdministration ()
    +addVaccineAdministration ()
    +getSmsSendDateTime (AdministrationDateTime)
    +SendSMS (AdministrationDateTime, SmsDateTime)

}

class VaccineSchedule{

}

class VaccineAdministration{
    +CreateVaccineAdministration (AdministrationDateTime, User.id, DoseNumber, nextVaccinedate)
}

interface SmsInteface{
    +SendSMS(AdministrationDateTime, SmsDateTime)
}

class VaccineAdministrationUI{
+getSnsUDTOListOfSnsUsers ()
+getVaccinesList ()
+CreateVaccineAdministration (vaccine, DosageNumber, SnsUser)
+saveVaccineAdministration ()
}

class VaccineAdministrationController{
+getNursetore ()
+getNurseByid (LogedInNurse)
+getVaccineScheduleStore ()
+getlistofSnsUsers (N)
+toDto UL)
+getVaccinesStore ()
+CreateVaccineList ()
+getVaccine ()
+addVaccine (Vac)
+getdatetime () 
+CreateVaccineAdministration (AdministrationDateTime, User.id, DoseNumber, nextVaccinedate)
+saveVaccineAdministration ()
}

class SMSNotification {

}


VaccineAdministrationUI ..> VaccineAdministrationController

VaccineAdministrationController ..> Company
VaccineAdministrationController ..> NurseStore
VaccineAdministrationController ..> SnsUserStore
VaccineAdministrationController ..> VaccineStore
VaccineAdministrationController ..> VaccineScheduleStore

VaccineScheduleStore ..> VaccineAdministration

Company -> Nurse : has
Company -> SnsUser : has
Company -> Vaccine : has
Company -> VaccineSchedule : has
Company -> SmsInteface : has

SmsInteface ..> SMSNotification

@enduml

PlantUML version 1.2022.0(Tue Jan 11 16:16:42 GMT 2022)
(GPL source distribution)
Java Runtime: Java(TM) SE Runtime Environment
JVM: Java HotSpot(TM) 64-Bit Server VM
Default Encoding: Cp1252
Language: pt
Country: PT
--></g></svg>